{
  "Guid": "a99b2b44-e7b1-e947-ba36-39ce5406c749",
  "UpdatedAt": "2026-05-24T16:19:42.924117Z",
  "Title": "Proxy Mapping for GET /3/movie/changes",
  "Description": "Proxy Mapping for GET /3/movie/changes",
  "Priority": -2000000,
  "Request": {
    "Path": {
      "Matchers": [
        {
          "Name": "WildcardMatcher",
          "Pattern": "/3/movie/changes",
          "IgnoreCase": false
        }
      ]
    },
    "Methods": [
      "GET"
    ],
    "HttpVersion": "1.1",
    "Headers": [
      {
        "Name": "Accept-Encoding",
        "Matchers": [
          {
            "Name": "WildcardMatcher",
            "Pattern": "gzip, deflate, br",
            "IgnoreCase": true
          }
        ],
        "IgnoreCase": true
      }
    ],
    "Params": [
      {
        "Name": "end_date",
        "Matchers": [
          {
            "Name": "ExactMatcher",
            "Pattern": "2025-11-24",
            "IgnoreCase": false
          }
        ]
      }
    ]
  },
  "Response": {
    "StatusCode": 200,
    "BodyAsJson": {
      "results": [
        {
          "id": 1064213,
          "adult": false,
          "softcore": false
        },
        {
          "id": 1585880,
          "adult": false,
          "softcore": false
        },
        {
          "id": 1565324,
          "adult": false,
          "softcore": false
        },
        {
          "id": 1585741,
          "adult": null,
          "softcore": null
        },
        {
          "id": 1585881,
          "adult": false,
          "softcore": false
        },
        {
          "id": 39104,
          "adult": false,
          "softcore": false
        },
        {
          "id": 975430,
          "adult": false,
          "softcore": false
        },
        {
          "id": 1572215,
          "adult": false,
          "softcore": false
        },
        {
          "id": 1555189,
          "adult": false,
          "softcore": false
        },
        {
          "id": 1484604,
          "adult": false,
          "softcore": false
        },
        {
          "id": 1509629,
          "adult": false,
          "softcore": false
        },
        {
          "id": 1518432,
          "adult": null,
          "softcore": null
        },
        {
          "id": 1525565,
          "adult": null,
          "softcore": null
        },
        {
          "id": 1557056,
          "adult": false,
          "softcore": false
        },
        {
          "id": 1560511,
          "adult": false,
          "softcore": false
        },
        {
          "id": 1562802,
          "adult": false,
          "softcore": false
        },
        {
          "id": 1568176,
          "adult": false,
          "softcore": false
        },
        {
          "id": 1568938,
          "adult": false,
          "softcore": false
        },
        {
          "id": 1570925,
          "adult": false,
          "softcore": false
        },
        {
          "id": 1570936,
          "adult": false,
          "softcore": false
        },
        {
          "id": 1571986,
          "adult": null,
          "softcore": null
        },
        {
          "id": 1573350,
          "adult": false,
          "softcore": false
        },
        {
          "id": 1574177,
          "adult": false,
          "softcore": false
        },
        {
          "id": 1574661,
          "adult": false,
          "softcore": false
        },
        {
          "id": 1575567,
          "adult": false,
          "softcore": false
        },
        {
          "id": 1575569,
          "adult": false,
          "softcore": false
        },
        {
          "id": 1575571,
          "adult": false,
          "softcore": false
        },
        {
          "id": 1577541,
          "adult": true,
          "softcore": false
        },
        {
          "id": 1577953,
          "adult": false,
          "softcore": false
        },
        {
          "id": 1578636,
          "adult": false,
          "softcore": false
        },
        {
          "id": 1579123,
          "adult": null,
          "softcore": null
        },
        {
          "id": 1579268,
          "adult": false,
          "softcore": false
        },
        {
          "id": 1579272,
          "adult": false,
          "softcore": false
        },
        {
          "id": 1579273,
          "adult": false,
          "softcore": false
        },
        {
          "id": 1579549,
          "adult": null,
          "softcore": null
        },
        {
          "id": 1580576,
          "adult": null,
          "softcore": null
        },
        {
          "id": 1583317,
          "adult": false,
          "softcore": false
        },
        {
          "id": 1583319,
          "adult": false,
          "softcore": false
        },
        {
          "id": 1583345,
          "adult": false,
          "softcore": false
        },
        {
          "id": 1583347,
          "adult": false,
          "softcore": false
        },
        {
          "id": 1583530,
          "adult": false,
          "softcore": false
        },
        {
          "id": 1584556,
          "adult": false,
          "softcore": false
        },
        {
          "id": 1584561,
          "adult": false,
          "softcore": false
        },
        {
          "id": 1584565,
          "adult": false,
          "softcore": false
        },
        {
          "id": 1584570,
          "adult": false,
          "softcore": false
        },
        {
          "id": 1584576,
          "adult": false,
          "softcore": false
        },
        {
          "id": 1584579,
          "adult": false,
          "softcore": false
        },
        {
          "id": 1584583,
          "adult": false,
          "softcore": false
        },
        {
          "id": 1584589,
          "adult": false,
          "softcore": false
        },
        {
          "id": 1584593,
          "adult": false,
          "softcore": false
        },
        {
          "id": 1584597,
          "adult": false,
          "softcore": false
        },
        {
          "id": 1585099,
          "adult": false,
          "softcore": false
        },
        {
          "id": 1585105,
          "adult": false,
          "softcore": false
        },
        {
          "id": 1585112,
          "adult": true,
          "softcore": false
        },
        {
          "id": 1218762,
          "adult": false,
          "softcore": false
        },
        {
          "id": 1220924,
          "adult": false,
          "softcore": false
        },
        {
          "id": 1291040,
          "adult": false,
          "softcore": false
        },
        {
          "id": 1309400,
          "adult": false,
          "softcore": false
        },
        {
          "id": 1309587,
          "adult": false,
          "softcore": false
        },
        {
          "id": 1370364,
          "adult": false,
          "softcore": false
        },
        {
          "id": 1423207,
          "adult": false,
          "softcore": false
        },
        {
          "id": 1519347,
          "adult": false,
          "softcore": false
        },
        {
          "id": 1572493,
          "adult": false,
          "softcore": true
        },
        {
          "id": 1577623,
          "adult": false,
          "softcore": false
        },
        {
          "id": 1580182,
          "adult": true,
          "softcore": false
        },
        {
          "id": 1580706,
          "adult": true,
          "softcore": false
        },
        {
          "id": 1585265,
          "adult": false,
          "softcore": false
        },
        {
          "id": 1585267,
          "adult": false,
          "softcore": false
        },
        {
          "id": 1585498,
          "adult": false,
          "softcore": false
        },
        {
          "id": 1553850,
          "adult": false,
          "softcore": false
        },
        {
          "id": 1585401,
          "adult": false,
          "softcore": false
        },
        {
          "id": 1585422,
          "adult": false,
          "softcore": false
        },
        {
          "id": 1585764,
          "adult": null,
          "softcore": null
        },
        {
          "id": 1585382,
          "adult": false,
          "softcore": false
        },
        {
          "id": 1585709,
          "adult": false,
          "softcore": false
        },
        {
          "id": 1585497,
          "adult": false,
          "softcore": false
        },
        {
          "id": 1566663,
          "adult": false,
          "softcore": false
        },
        {
          "id": 1585418,
          "adult": null,
          "softcore": null
        },
        {
          "id": 1585854,
          "adult": false,
          "softcore": false
        },
        {
          "id": 1585859,
          "adult": false,
          "softcore": false
        },
        {
          "id": 1514173,
          "adult": false,
          "softcore": false
        },
        {
          "id": 1585789,
          "adult": null,
          "softcore": null
        },
        {
          "id": 1585875,
          "adult": false,
          "softcore": false
        },
        {
          "id": 1320386,
          "adult": false,
          "softcore": false
        },
        {
          "id": 1585882,
          "adult": false,
          "softcore": false
        },
        {
          "id": 1585883,
          "adult": true,
          "softcore": false
        },
        {
          "id": 1487459,
          "adult": false,
          "softcore": false
        },
        {
          "id": 962461,
          "adult": false,
          "softcore": false
        },
        {
          "id": 1585788,
          "adult": false,
          "softcore": false
        },
        {
          "id": 1582345,
          "adult": false,
          "softcore": false
        },
        {
          "id": 933260,
          "adult": false,
          "softcore": false
        },
        {
          "id": 967941,
          "adult": false,
          "softcore": false
        },
        {
          "id": 396784,
          "adult": false,
          "softcore": false
        },
        {
          "id": 964980,
          "adult": false,
          "softcore": false
        },
        {
          "id": 14411,
          "adult": false,
          "softcore": false
        },
        {
          "id": 1585877,
          "adult": null,
          "softcore": null
        },
        {
          "id": 1585884,
          "adult": false,
          "softcore": false
        },
        {
          "id": 1585885,
          "adult": true,
          "softcore": false
        },
        {
          "id": 1585866,
          "adult": false,
          "softcore": false
        },
        {
          "id": 1519692,
          "adult": false,
          "softcore": false
        }
      ],
      "page": 1,
      "total_pages": 118,
      "total_results": 11785
    },
    "Headers": {
      "Content-Type": "application/json; charset=utf-8",
      "Transfer-Encoding": "chunked",
      "Connection": "keep-alive",
      "Server": "openresty",
      "X-Gateway-Cache-Status": "MISS",
      "Cache-Control": "public, max-age=86400",
      "x-memc": "MISS, STORE",
      "x-memc-key": "35beb597b679fcde484f95e9175b0e92e6d6d354d260a2dee8a435e7bf27c311",
      "x-az": "us-east-1b",
      "ETag": "W/\u0022fba42e594db06306e6383fec475d37c9\u0022",
      "Vary": [
        "accept-encoding",
        "Origin"
      ],
      "X-Cache": "Hit from cloudfront",
      "X-Amz-Cf-Pop": "MUC50-P2",
      "Alt-Svc": "h3=\u0022:443\u0022"
    }
  }
}