{
  "Guid": "818dae93-724e-8b44-b0ed-4f3867c27d31",
  "UpdatedAt": "2026-07-21T19:32:03.560177Z",
  "Title": "Proxy Mapping for GET /3/tv/changes",
  "Description": "Proxy Mapping for GET /3/tv/changes",
  "Priority": -2000000,
  "Request": {
    "Path": {
      "Matchers": [
        {
          "Name": "WildcardMatcher",
          "Pattern": "/3/tv/changes",
          "IgnoreCase": false
        }
      ]
    },
    "Methods": [
      "GET"
    ],
    "HttpVersion": "1.1",
    "Headers": [
      {
        "Name": "Accept-Encoding",
        "Matchers": [
          {
            "Name": "WildcardMatcher",
            "Pattern": "gzip, deflate, br",
            "IgnoreCase": true
          }
        ],
        "IgnoreCase": true
      }
    ],
    "Params": [
      {
        "Name": "page",
        "Matchers": [
          {
            "Name": "ExactMatcher",
            "Pattern": "1",
            "IgnoreCase": false
          }
        ]
      }
    ]
  },
  "Response": {
    "StatusCode": 200,
    "BodyAsJson": {
      "results": [
        {
          "id": 88191,
          "adult": false,
          "softcore": false
        },
        {
          "id": 11347,
          "adult": false,
          "softcore": false
        },
        {
          "id": 1405,
          "adult": false,
          "softcore": false
        },
        {
          "id": 502,
          "adult": false,
          "softcore": false
        },
        {
          "id": 329114,
          "adult": false,
          "softcore": false
        },
        {
          "id": 329106,
          "adult": false,
          "softcore": false
        },
        {
          "id": 18543,
          "adult": false,
          "softcore": false
        },
        {
          "id": 240576,
          "adult": false,
          "softcore": false
        },
        {
          "id": 18347,
          "adult": false,
          "softcore": false
        },
        {
          "id": 58841,
          "adult": false,
          "softcore": false
        },
        {
          "id": 319770,
          "adult": false,
          "softcore": false
        },
        {
          "id": 5709,
          "adult": false,
          "softcore": false
        },
        {
          "id": 279216,
          "adult": false,
          "softcore": false
        },
        {
          "id": 326568,
          "adult": false,
          "softcore": false
        },
        {
          "id": 298939,
          "adult": false,
          "softcore": false
        },
        {
          "id": 320516,
          "adult": false,
          "softcore": false
        },
        {
          "id": 329028,
          "adult": false,
          "softcore": false
        },
        {
          "id": 270603,
          "adult": false,
          "softcore": false
        },
        {
          "id": 328719,
          "adult": false,
          "softcore": true
        },
        {
          "id": 288971,
          "adult": false,
          "softcore": false
        },
        {
          "id": 329015,
          "adult": false,
          "softcore": false
        },
        {
          "id": 311452,
          "adult": false,
          "softcore": false
        },
        {
          "id": 326562,
          "adult": false,
          "softcore": false
        },
        {
          "id": 287238,
          "adult": false,
          "softcore": false
        },
        {
          "id": 303652,
          "adult": false,
          "softcore": false
        },
        {
          "id": 305830,
          "adult": false,
          "softcore": false
        },
        {
          "id": 319077,
          "adult": false,
          "softcore": false
        },
        {
          "id": 327738,
          "adult": false,
          "softcore": false
        },
        {
          "id": 121651,
          "adult": false,
          "softcore": false
        },
        {
          "id": 312585,
          "adult": false,
          "softcore": false
        },
        {
          "id": 32716,
          "adult": false,
          "softcore": false
        },
        {
          "id": 120082,
          "adult": false,
          "softcore": false
        },
        {
          "id": 278882,
          "adult": false,
          "softcore": false
        },
        {
          "id": 93449,
          "adult": false,
          "softcore": false
        },
        {
          "id": 498,
          "adult": false,
          "softcore": false
        },
        {
          "id": 132924,
          "adult": false,
          "softcore": false
        },
        {
          "id": 328300,
          "adult": false,
          "softcore": false
        },
        {
          "id": 194703,
          "adult": false,
          "softcore": false
        },
        {
          "id": 296206,
          "adult": false,
          "softcore": false
        },
        {
          "id": 281548,
          "adult": false,
          "softcore": false
        },
        {
          "id": 230468,
          "adult": false,
          "softcore": false
        },
        {
          "id": 2221,
          "adult": false,
          "softcore": false
        },
        {
          "id": 323168,
          "adult": false,
          "softcore": false
        },
        {
          "id": 20475,
          "adult": false,
          "softcore": false
        },
        {
          "id": 61818,
          "adult": false,
          "softcore": false
        },
        {
          "id": 329115,
          "adult": false,
          "softcore": false
        },
        {
          "id": 2458,
          "adult": false,
          "softcore": false
        },
        {
          "id": 19885,
          "adult": false,
          "softcore": false
        },
        {
          "id": 88396,
          "adult": false,
          "softcore": false
        },
        {
          "id": 31251,
          "adult": false,
          "softcore": false
        },
        {
          "id": 1489,
          "adult": false,
          "softcore": false
        },
        {
          "id": 249190,
          "adult": false,
          "softcore": false
        },
        {
          "id": 196454,
          "adult": false,
          "softcore": false
        },
        {
          "id": 329086,
          "adult": false,
          "softcore": false
        },
        {
          "id": 250865,
          "adult": false,
          "softcore": false
        },
        {
          "id": 298610,
          "adult": false,
          "softcore": false
        },
        {
          "id": 329116,
          "adult": false,
          "softcore": false
        },
        {
          "id": 155472,
          "adult": false,
          "softcore": false
        },
        {
          "id": 89168,
          "adult": false,
          "softcore": false
        },
        {
          "id": 213791,
          "adult": false,
          "softcore": false
        },
        {
          "id": 37854,
          "adult": false,
          "softcore": false
        },
        {
          "id": 326796,
          "adult": false,
          "softcore": false
        },
        {
          "id": 91618,
          "adult": false,
          "softcore": false
        },
        {
          "id": 84891,
          "adult": true,
          "softcore": false
        },
        {
          "id": 319263,
          "adult": false,
          "softcore": false
        },
        {
          "id": 206706,
          "adult": false,
          "softcore": false
        },
        {
          "id": 82873,
          "adult": false,
          "softcore": false
        },
        {
          "id": 109805,
          "adult": false,
          "softcore": false
        },
        {
          "id": 277378,
          "adult": false,
          "softcore": false
        },
        {
          "id": 279323,
          "adult": false,
          "softcore": false
        },
        {
          "id": 108291,
          "adult": false,
          "softcore": false
        },
        {
          "id": 213276,
          "adult": false,
          "softcore": false
        },
        {
          "id": 314107,
          "adult": false,
          "softcore": false
        },
        {
          "id": 76669,
          "adult": false,
          "softcore": false
        },
        {
          "id": 7869,
          "adult": false,
          "softcore": false
        },
        {
          "id": 306877,
          "adult": false,
          "softcore": false
        },
        {
          "id": 119466,
          "adult": false,
          "softcore": false
        },
        {
          "id": 5855,
          "adult": false,
          "softcore": false
        },
        {
          "id": 289746,
          "adult": false,
          "softcore": false
        },
        {
          "id": 77535,
          "adult": true,
          "softcore": false
        },
        {
          "id": 224372,
          "adult": false,
          "softcore": false
        },
        {
          "id": 64414,
          "adult": false,
          "softcore": false
        },
        {
          "id": 132925,
          "adult": false,
          "softcore": false
        },
        {
          "id": 211564,
          "adult": false,
          "softcore": false
        },
        {
          "id": 127651,
          "adult": false,
          "softcore": false
        },
        {
          "id": 31248,
          "adult": false,
          "softcore": false
        },
        {
          "id": 329117,
          "adult": false,
          "softcore": false
        },
        {
          "id": 119320,
          "adult": false,
          "softcore": false
        },
        {
          "id": 103205,
          "adult": true,
          "softcore": false
        },
        {
          "id": 329118,
          "adult": false,
          "softcore": false
        },
        {
          "id": 36297,
          "adult": false,
          "softcore": false
        },
        {
          "id": 329071,
          "adult": false,
          "softcore": false
        },
        {
          "id": 291539,
          "adult": false,
          "softcore": false
        },
        {
          "id": 43798,
          "adult": false,
          "softcore": false
        },
        {
          "id": 26984,
          "adult": false,
          "softcore": false
        },
        {
          "id": 325837,
          "adult": false,
          "softcore": false
        },
        {
          "id": 93067,
          "adult": true,
          "softcore": false
        },
        {
          "id": 106409,
          "adult": false,
          "softcore": false
        },
        {
          "id": 44953,
          "adult": false,
          "softcore": false
        },
        {
          "id": 305227,
          "adult": false,
          "softcore": false
        }
      ],
      "page": 1,
      "total_pages": 31,
      "total_results": 3002
    },
    "Headers": {
      "Content-Type": "application/json; charset=utf-8",
      "Transfer-Encoding": "chunked",
      "Connection": "keep-alive",
      "x-az": "us-east-1b",
      "Server": "openresty",
      "X-Gateway-Cache-Status": "HIT",
      "Cache-Control": "public, max-age=126",
      "ETag": "W/\u002238e68a5b042ba80b23a25713853f112e\u0022",
      "X-Cache": "Hit from cloudfront",
      "X-Amz-Cf-Pop": "MUC50-P2",
      "Alt-Svc": "h3=\u0022:443\u0022",
      "Vary": "Origin"
    }
  }
}