{
  "Guid": "3e1eb8fc-2b7d-084c-a85d-e326b917bd09",
  "UpdatedAt": "2026-07-21T19:32:03.639333Z",
  "Title": "Proxy Mapping for GET /3/person/changes",
  "Description": "Proxy Mapping for GET /3/person/changes",
  "Priority": -2000000,
  "Request": {
    "Path": {
      "Matchers": [
        {
          "Name": "WildcardMatcher",
          "Pattern": "/3/person/changes",
          "IgnoreCase": false
        }
      ]
    },
    "Methods": [
      "GET"
    ],
    "HttpVersion": "1.1",
    "Headers": [
      {
        "Name": "Accept-Encoding",
        "Matchers": [
          {
            "Name": "WildcardMatcher",
            "Pattern": "gzip, deflate, br",
            "IgnoreCase": true
          }
        ],
        "IgnoreCase": true
      }
    ],
    "Params": [
      {
        "Name": "page",
        "Matchers": [
          {
            "Name": "ExactMatcher",
            "Pattern": "1",
            "IgnoreCase": false
          }
        ]
      }
    ]
  },
  "Response": {
    "StatusCode": 200,
    "BodyAsJson": {
      "results": [
        {
          "id": 6358157,
          "adult": false,
          "softcore": false
        },
        {
          "id": 6358158,
          "adult": false,
          "softcore": false
        },
        {
          "id": 6358159,
          "adult": false,
          "softcore": false
        },
        {
          "id": 6358160,
          "adult": false,
          "softcore": false
        },
        {
          "id": 6358161,
          "adult": false,
          "softcore": false
        },
        {
          "id": 6358162,
          "adult": false,
          "softcore": false
        },
        {
          "id": 6142873,
          "adult": false,
          "softcore": false
        },
        {
          "id": 6358163,
          "adult": false,
          "softcore": false
        },
        {
          "id": 6358111,
          "adult": false,
          "softcore": false
        },
        {
          "id": 6353540,
          "adult": false,
          "softcore": false
        },
        {
          "id": 6358164,
          "adult": false,
          "softcore": false
        },
        {
          "id": 6358165,
          "adult": false,
          "softcore": false
        },
        {
          "id": 6358166,
          "adult": false,
          "softcore": false
        },
        {
          "id": 6358167,
          "adult": false,
          "softcore": false
        },
        {
          "id": 6358168,
          "adult": false,
          "softcore": false
        },
        {
          "id": 1197896,
          "adult": false,
          "softcore": false
        },
        {
          "id": 6358169,
          "adult": false,
          "softcore": false
        },
        {
          "id": 6358170,
          "adult": false,
          "softcore": false
        },
        {
          "id": 1809209,
          "adult": false,
          "softcore": false
        },
        {
          "id": 6358171,
          "adult": false,
          "softcore": false
        },
        {
          "id": 1809211,
          "adult": false,
          "softcore": false
        },
        {
          "id": 6358172,
          "adult": false,
          "softcore": false
        },
        {
          "id": 6358173,
          "adult": false,
          "softcore": false
        },
        {
          "id": 1809208,
          "adult": false,
          "softcore": false
        },
        {
          "id": 6358174,
          "adult": false,
          "softcore": false
        },
        {
          "id": 1772988,
          "adult": false,
          "softcore": false
        },
        {
          "id": 6358175,
          "adult": false,
          "softcore": false
        },
        {
          "id": 1743358,
          "adult": false,
          "softcore": false
        },
        {
          "id": 1809206,
          "adult": false,
          "softcore": false
        },
        {
          "id": 1353678,
          "adult": false,
          "softcore": false
        },
        {
          "id": 6358176,
          "adult": false,
          "softcore": false
        },
        {
          "id": 6358177,
          "adult": false,
          "softcore": false
        },
        {
          "id": 6358178,
          "adult": false,
          "softcore": false
        },
        {
          "id": 4905575,
          "adult": false,
          "softcore": false
        },
        {
          "id": 1411651,
          "adult": false,
          "softcore": false
        },
        {
          "id": 6358179,
          "adult": false,
          "softcore": false
        },
        {
          "id": 6358180,
          "adult": false,
          "softcore": false
        },
        {
          "id": 6358181,
          "adult": false,
          "softcore": false
        },
        {
          "id": 6358182,
          "adult": false,
          "softcore": false
        },
        {
          "id": 6358183,
          "adult": false,
          "softcore": false
        },
        {
          "id": 6358184,
          "adult": false,
          "softcore": false
        },
        {
          "id": 6358185,
          "adult": false,
          "softcore": false
        },
        {
          "id": 6358186,
          "adult": false,
          "softcore": false
        },
        {
          "id": 4826613,
          "adult": false,
          "softcore": false
        },
        {
          "id": 6358108,
          "adult": false,
          "softcore": false
        },
        {
          "id": 6358187,
          "adult": false,
          "softcore": false
        },
        {
          "id": 1124593,
          "adult": false,
          "softcore": false
        },
        {
          "id": 6358188,
          "adult": false,
          "softcore": false
        },
        {
          "id": 6358109,
          "adult": false,
          "softcore": false
        },
        {
          "id": 6358189,
          "adult": false,
          "softcore": false
        },
        {
          "id": 6358190,
          "adult": false,
          "softcore": false
        },
        {
          "id": 6358191,
          "adult": false,
          "softcore": false
        },
        {
          "id": 1118827,
          "adult": false,
          "softcore": false
        },
        {
          "id": 6358192,
          "adult": false,
          "softcore": false
        },
        {
          "id": 6358193,
          "adult": false,
          "softcore": false
        },
        {
          "id": 6358194,
          "adult": false,
          "softcore": false
        },
        {
          "id": 6358195,
          "adult": false,
          "softcore": false
        },
        {
          "id": 225153,
          "adult": false,
          "softcore": false
        },
        {
          "id": 6358196,
          "adult": false,
          "softcore": false
        },
        {
          "id": 2093984,
          "adult": false,
          "softcore": false
        },
        {
          "id": 6358197,
          "adult": false,
          "softcore": false
        },
        {
          "id": 6358198,
          "adult": false,
          "softcore": false
        },
        {
          "id": 6358199,
          "adult": false,
          "softcore": false
        },
        {
          "id": 6358200,
          "adult": false,
          "softcore": false
        },
        {
          "id": 6358201,
          "adult": false,
          "softcore": false
        },
        {
          "id": 6358202,
          "adult": false,
          "softcore": false
        },
        {
          "id": 6358203,
          "adult": false,
          "softcore": false
        },
        {
          "id": 6358204,
          "adult": false,
          "softcore": false
        },
        {
          "id": 6356612,
          "adult": false,
          "softcore": false
        },
        {
          "id": 6358205,
          "adult": false,
          "softcore": false
        },
        {
          "id": 6358206,
          "adult": false,
          "softcore": false
        },
        {
          "id": 64181,
          "adult": false,
          "softcore": false
        },
        {
          "id": 6358207,
          "adult": false,
          "softcore": false
        },
        {
          "id": 6358208,
          "adult": false,
          "softcore": false
        },
        {
          "id": 6358209,
          "adult": false,
          "softcore": false
        },
        {
          "id": 6358210,
          "adult": false,
          "softcore": false
        },
        {
          "id": 6358211,
          "adult": false,
          "softcore": false
        },
        {
          "id": 209930,
          "adult": false,
          "softcore": false
        },
        {
          "id": 6358212,
          "adult": false,
          "softcore": false
        },
        {
          "id": 1315268,
          "adult": false,
          "softcore": false
        },
        {
          "id": 6358213,
          "adult": false,
          "softcore": false
        },
        {
          "id": 6358214,
          "adult": false,
          "softcore": false
        },
        {
          "id": 6358215,
          "adult": false,
          "softcore": false
        },
        {
          "id": 6358216,
          "adult": false,
          "softcore": false
        },
        {
          "id": 1816788,
          "adult": false,
          "softcore": false
        },
        {
          "id": 6358217,
          "adult": false,
          "softcore": false
        },
        {
          "id": 6358218,
          "adult": false,
          "softcore": false
        },
        {
          "id": 6358219,
          "adult": false,
          "softcore": false
        },
        {
          "id": 6358220,
          "adult": false,
          "softcore": false
        },
        {
          "id": 5899518,
          "adult": false,
          "softcore": false
        },
        {
          "id": 6353582,
          "adult": false,
          "softcore": false
        },
        {
          "id": 6358221,
          "adult": false,
          "softcore": false
        },
        {
          "id": 6358222,
          "adult": false,
          "softcore": false
        },
        {
          "id": 6353599,
          "adult": false,
          "softcore": false
        },
        {
          "id": 6358223,
          "adult": false,
          "softcore": false
        },
        {
          "id": 6358224,
          "adult": false,
          "softcore": false
        },
        {
          "id": 6358225,
          "adult": false,
          "softcore": false
        },
        {
          "id": 6358226,
          "adult": false,
          "softcore": false
        },
        {
          "id": 5461640,
          "adult": false,
          "softcore": false
        },
        {
          "id": 6358227,
          "adult": false,
          "softcore": false
        }
      ],
      "page": 1,
      "total_pages": 69,
      "total_results": 6895
    },
    "Headers": {
      "Content-Type": "application/json; charset=utf-8",
      "Transfer-Encoding": "chunked",
      "Connection": "keep-alive",
      "x-az": "us-east-1c",
      "Cache-Control": "public, max-age=231",
      "Server": "openresty",
      "X-Gateway-Cache-Status": "HIT",
      "ETag": "W/\u0022e2afd6aaae4b0376b8fbc0cb1eba0482\u0022",
      "X-Cache": "Hit from cloudfront",
      "X-Amz-Cf-Pop": "MUC50-P2",
      "Alt-Svc": "h3=\u0022:443\u0022",
      "Vary": "Origin"
    }
  }
}