{
  "Guid": "3041ed60-b835-7d4d-9ac7-dc5f692f4ef9",
  "UpdatedAt": "2026-05-24T16:19:42.916794Z",
  "Title": "Proxy Mapping for GET /3/movie/changes",
  "Description": "Proxy Mapping for GET /3/movie/changes",
  "Priority": -2000000,
  "Request": {
    "Path": {
      "Matchers": [
        {
          "Name": "WildcardMatcher",
          "Pattern": "/3/movie/changes",
          "IgnoreCase": false
        }
      ]
    },
    "Methods": [
      "GET"
    ],
    "HttpVersion": "1.1",
    "Headers": [
      {
        "Name": "Accept-Encoding",
        "Matchers": [
          {
            "Name": "WildcardMatcher",
            "Pattern": "gzip, deflate, br",
            "IgnoreCase": true
          }
        ],
        "IgnoreCase": true
      }
    ],
    "Params": [
      {
        "Name": "page",
        "Matchers": [
          {
            "Name": "ExactMatcher",
            "Pattern": "1",
            "IgnoreCase": false
          }
        ]
      }
    ]
  },
  "Response": {
    "StatusCode": 200,
    "BodyAsJson": {
      "results": [
        {
          "id": 1628367,
          "adult": false,
          "softcore": false
        },
        {
          "id": 14069,
          "adult": false,
          "softcore": false
        },
        {
          "id": 1433669,
          "adult": false,
          "softcore": false
        },
        {
          "id": 1699040,
          "adult": false,
          "softcore": false
        },
        {
          "id": 1250512,
          "adult": false,
          "softcore": false
        },
        {
          "id": 1700103,
          "adult": false,
          "softcore": false
        },
        {
          "id": 1688502,
          "adult": false,
          "softcore": false
        },
        {
          "id": 1700116,
          "adult": false,
          "softcore": false
        },
        {
          "id": 1700322,
          "adult": false,
          "softcore": false
        },
        {
          "id": 1318413,
          "adult": false,
          "softcore": false
        },
        {
          "id": 1610917,
          "adult": false,
          "softcore": false
        },
        {
          "id": 1316981,
          "adult": false,
          "softcore": false
        },
        {
          "id": 1462060,
          "adult": false,
          "softcore": false
        },
        {
          "id": 1563442,
          "adult": false,
          "softcore": false
        },
        {
          "id": 1579163,
          "adult": false,
          "softcore": false
        },
        {
          "id": 1588097,
          "adult": false,
          "softcore": false
        },
        {
          "id": 1616057,
          "adult": false,
          "softcore": false
        },
        {
          "id": 1623517,
          "adult": false,
          "softcore": false
        },
        {
          "id": 1673529,
          "adult": true,
          "softcore": false
        },
        {
          "id": 1675086,
          "adult": false,
          "softcore": false
        },
        {
          "id": 1678506,
          "adult": false,
          "softcore": false
        },
        {
          "id": 1679359,
          "adult": false,
          "softcore": false
        },
        {
          "id": 1680922,
          "adult": false,
          "softcore": false
        },
        {
          "id": 1681059,
          "adult": false,
          "softcore": false
        },
        {
          "id": 1681074,
          "adult": true,
          "softcore": false
        },
        {
          "id": 1682689,
          "adult": false,
          "softcore": false
        },
        {
          "id": 1682704,
          "adult": false,
          "softcore": false
        },
        {
          "id": 1684246,
          "adult": false,
          "softcore": false
        },
        {
          "id": 1684675,
          "adult": false,
          "softcore": false
        },
        {
          "id": 1688493,
          "adult": false,
          "softcore": false
        },
        {
          "id": 1688943,
          "adult": false,
          "softcore": false
        },
        {
          "id": 1690018,
          "adult": false,
          "softcore": false
        },
        {
          "id": 1692373,
          "adult": false,
          "softcore": false
        },
        {
          "id": 1697645,
          "adult": false,
          "softcore": false
        },
        {
          "id": 1697646,
          "adult": false,
          "softcore": false
        },
        {
          "id": 1697649,
          "adult": false,
          "softcore": false
        },
        {
          "id": 1697651,
          "adult": false,
          "softcore": false
        },
        {
          "id": 1697653,
          "adult": false,
          "softcore": false
        },
        {
          "id": 1697656,
          "adult": false,
          "softcore": false
        },
        {
          "id": 1697663,
          "adult": false,
          "softcore": false
        },
        {
          "id": 1698137,
          "adult": false,
          "softcore": false
        },
        {
          "id": 1699157,
          "adult": false,
          "softcore": false
        },
        {
          "id": 1699452,
          "adult": false,
          "softcore": false
        },
        {
          "id": 1700042,
          "adult": false,
          "softcore": false
        },
        {
          "id": 1700340,
          "adult": false,
          "softcore": false
        },
        {
          "id": 1564493,
          "adult": false,
          "softcore": false
        },
        {
          "id": 1680516,
          "adult": false,
          "softcore": false
        },
        {
          "id": 1692370,
          "adult": false,
          "softcore": false
        },
        {
          "id": 1669586,
          "adult": false,
          "softcore": false
        },
        {
          "id": 1683047,
          "adult": false,
          "softcore": false
        },
        {
          "id": 1687932,
          "adult": true,
          "softcore": false
        },
        {
          "id": 1698760,
          "adult": false,
          "softcore": false
        },
        {
          "id": 1700201,
          "adult": false,
          "softcore": false
        },
        {
          "id": 1700557,
          "adult": false,
          "softcore": false
        },
        {
          "id": 1699202,
          "adult": false,
          "softcore": false
        },
        {
          "id": 1700190,
          "adult": false,
          "softcore": false
        },
        {
          "id": 1700195,
          "adult": false,
          "softcore": false
        },
        {
          "id": 1700197,
          "adult": false,
          "softcore": false
        },
        {
          "id": 1700219,
          "adult": false,
          "softcore": false
        },
        {
          "id": 1700223,
          "adult": false,
          "softcore": false
        },
        {
          "id": 1700234,
          "adult": false,
          "softcore": false
        },
        {
          "id": 1700239,
          "adult": false,
          "softcore": false
        },
        {
          "id": 1700243,
          "adult": false,
          "softcore": false
        },
        {
          "id": 1700254,
          "adult": false,
          "softcore": false
        },
        {
          "id": 1700630,
          "adult": false,
          "softcore": false
        },
        {
          "id": 1099619,
          "adult": false,
          "softcore": false
        },
        {
          "id": 1563699,
          "adult": false,
          "softcore": false
        },
        {
          "id": 1699333,
          "adult": false,
          "softcore": false
        },
        {
          "id": 1700146,
          "adult": false,
          "softcore": false
        },
        {
          "id": 1700271,
          "adult": false,
          "softcore": false
        },
        {
          "id": 1700286,
          "adult": false,
          "softcore": false
        },
        {
          "id": 1700307,
          "adult": false,
          "softcore": false
        },
        {
          "id": 1700311,
          "adult": false,
          "softcore": false
        },
        {
          "id": 1368455,
          "adult": false,
          "softcore": false
        },
        {
          "id": 1502399,
          "adult": false,
          "softcore": false
        },
        {
          "id": 1700253,
          "adult": false,
          "softcore": false
        },
        {
          "id": 1700290,
          "adult": false,
          "softcore": false
        },
        {
          "id": 1700317,
          "adult": false,
          "softcore": false
        },
        {
          "id": 1700324,
          "adult": false,
          "softcore": false
        },
        {
          "id": 1700341,
          "adult": false,
          "softcore": false
        },
        {
          "id": 1700358,
          "adult": false,
          "softcore": false
        },
        {
          "id": 1700365,
          "adult": false,
          "softcore": false
        },
        {
          "id": 1700371,
          "adult": false,
          "softcore": false
        },
        {
          "id": 1700406,
          "adult": false,
          "softcore": false
        },
        {
          "id": 1700491,
          "adult": false,
          "softcore": false
        },
        {
          "id": 1700696,
          "adult": false,
          "softcore": false
        },
        {
          "id": 1700690,
          "adult": false,
          "softcore": false
        },
        {
          "id": 1700694,
          "adult": false,
          "softcore": false
        },
        {
          "id": 1700701,
          "adult": false,
          "softcore": false
        },
        {
          "id": 1700695,
          "adult": false,
          "softcore": false
        },
        {
          "id": 1700130,
          "adult": false,
          "softcore": false
        },
        {
          "id": 1645435,
          "adult": false,
          "softcore": false
        },
        {
          "id": 1700150,
          "adult": false,
          "softcore": false
        },
        {
          "id": 1383316,
          "adult": false,
          "softcore": false
        },
        {
          "id": 1688833,
          "adult": false,
          "softcore": false
        },
        {
          "id": 1700691,
          "adult": false,
          "softcore": false
        },
        {
          "id": 1700329,
          "adult": false,
          "softcore": false
        },
        {
          "id": 1650006,
          "adult": false,
          "softcore": false
        },
        {
          "id": 1700230,
          "adult": false,
          "softcore": false
        },
        {
          "id": 1700429,
          "adult": false,
          "softcore": false
        }
      ],
      "page": 1,
      "total_pages": 79,
      "total_results": 7891
    },
    "Headers": {
      "Content-Type": "application/json; charset=utf-8",
      "Transfer-Encoding": "chunked",
      "Connection": "keep-alive",
      "Server": "openresty",
      "X-Gateway-Cache-Status": "MISS",
      "Cache-Control": "public, max-age=600",
      "x-memc": "HIT",
      "x-memc-key": "9bfe2a6d29dfa19884b45e07a21169936e6b4f75b9535dd9d21d8652d1b4bae8",
      "x-az": "us-east-1c",
      "ETag": "W/\u00220e3b300ff99303b252a6dd81de80bc51\u0022",
      "Vary": [
        "Accept-Encoding",
        "Origin"
      ],
      "X-Cache": "Hit from cloudfront",
      "X-Amz-Cf-Pop": "MUC50-P2",
      "Alt-Svc": "h3=\u0022:443\u0022"
    }
  }
}