{
  "Guid": "c991be3c-78d0-de4f-b06f-01b297539c32",
  "UpdatedAt": "2026-05-24T16:19:42.908328Z",
  "Title": "Proxy Mapping for GET /3/tv/changes",
  "Description": "Proxy Mapping for GET /3/tv/changes",
  "Priority": -2000000,
  "Request": {
    "Path": {
      "Matchers": [
        {
          "Name": "WildcardMatcher",
          "Pattern": "/3/tv/changes",
          "IgnoreCase": false
        }
      ]
    },
    "Methods": [
      "GET"
    ],
    "HttpVersion": "1.1",
    "Headers": [
      {
        "Name": "Accept-Encoding",
        "Matchers": [
          {
            "Name": "WildcardMatcher",
            "Pattern": "gzip, deflate, br",
            "IgnoreCase": true
          }
        ],
        "IgnoreCase": true
      }
    ],
    "Params": [
      {
        "Name": "end_date",
        "Matchers": [
          {
            "Name": "ExactMatcher",
            "Pattern": "2025-11-24",
            "IgnoreCase": false
          }
        ]
      }
    ]
  },
  "Response": {
    "StatusCode": 200,
    "BodyAsJson": {
      "results": [
        {
          "id": 79917,
          "adult": false,
          "softcore": false
        },
        {
          "id": 258532,
          "adult": false,
          "softcore": false
        },
        {
          "id": 82728,
          "adult": false,
          "softcore": false
        },
        {
          "id": 34742,
          "adult": false,
          "softcore": false
        },
        {
          "id": 306376,
          "adult": false,
          "softcore": false
        },
        {
          "id": 306363,
          "adult": false,
          "softcore": false
        },
        {
          "id": 117690,
          "adult": false,
          "softcore": false
        },
        {
          "id": 90790,
          "adult": false,
          "softcore": false
        },
        {
          "id": 66732,
          "adult": false,
          "softcore": false
        },
        {
          "id": 306378,
          "adult": false,
          "softcore": false
        },
        {
          "id": 306360,
          "adult": null,
          "softcore": null
        },
        {
          "id": 306301,
          "adult": null,
          "softcore": null
        },
        {
          "id": 306243,
          "adult": false,
          "softcore": false
        },
        {
          "id": 302736,
          "adult": false,
          "softcore": false
        },
        {
          "id": 305902,
          "adult": false,
          "softcore": false
        },
        {
          "id": 284879,
          "adult": false,
          "softcore": false
        },
        {
          "id": 301294,
          "adult": false,
          "softcore": false
        },
        {
          "id": 302648,
          "adult": false,
          "softcore": false
        },
        {
          "id": 303474,
          "adult": false,
          "softcore": false
        },
        {
          "id": 1581,
          "adult": false,
          "softcore": false
        },
        {
          "id": 225171,
          "adult": false,
          "softcore": false
        },
        {
          "id": 306379,
          "adult": false,
          "softcore": false
        },
        {
          "id": 306371,
          "adult": false,
          "softcore": false
        },
        {
          "id": 206,
          "adult": false,
          "softcore": false
        },
        {
          "id": 306380,
          "adult": false,
          "softcore": false
        },
        {
          "id": 20794,
          "adult": false,
          "softcore": false
        },
        {
          "id": 1448,
          "adult": false,
          "softcore": false
        },
        {
          "id": 306381,
          "adult": false,
          "softcore": false
        },
        {
          "id": 306215,
          "adult": false,
          "softcore": false
        },
        {
          "id": 274915,
          "adult": false,
          "softcore": false
        },
        {
          "id": 303289,
          "adult": false,
          "softcore": false
        },
        {
          "id": 306382,
          "adult": false,
          "softcore": false
        },
        {
          "id": 253896,
          "adult": false,
          "softcore": false
        },
        {
          "id": 103757,
          "adult": false,
          "softcore": false
        },
        {
          "id": 103804,
          "adult": false,
          "softcore": false
        },
        {
          "id": 306383,
          "adult": false,
          "softcore": false
        },
        {
          "id": 306384,
          "adult": false,
          "softcore": false
        },
        {
          "id": 36460,
          "adult": false,
          "softcore": false
        },
        {
          "id": 306385,
          "adult": false,
          "softcore": false
        },
        {
          "id": 97951,
          "adult": false,
          "softcore": false
        },
        {
          "id": 60910,
          "adult": false,
          "softcore": false
        },
        {
          "id": 237512,
          "adult": false,
          "softcore": false
        },
        {
          "id": 63770,
          "adult": false,
          "softcore": false
        },
        {
          "id": 257530,
          "adult": false,
          "softcore": false
        },
        {
          "id": 68135,
          "adult": false,
          "softcore": false
        },
        {
          "id": 294865,
          "adult": null,
          "softcore": null
        },
        {
          "id": 288644,
          "adult": false,
          "softcore": false
        },
        {
          "id": 305197,
          "adult": false,
          "softcore": false
        },
        {
          "id": 85431,
          "adult": false,
          "softcore": false
        },
        {
          "id": 256853,
          "adult": false,
          "softcore": false
        },
        {
          "id": 259140,
          "adult": false,
          "softcore": false
        },
        {
          "id": 239870,
          "adult": false,
          "softcore": false
        },
        {
          "id": 158198,
          "adult": false,
          "softcore": false
        },
        {
          "id": 245194,
          "adult": false,
          "softcore": false
        },
        {
          "id": 306386,
          "adult": false,
          "softcore": false
        },
        {
          "id": 1711,
          "adult": false,
          "softcore": false
        },
        {
          "id": 306361,
          "adult": false,
          "softcore": false
        },
        {
          "id": 305721,
          "adult": false,
          "softcore": false
        },
        {
          "id": 306242,
          "adult": false,
          "softcore": false
        },
        {
          "id": 156345,
          "adult": false,
          "softcore": false
        },
        {
          "id": 76331,
          "adult": false,
          "softcore": false
        },
        {
          "id": 305670,
          "adult": null,
          "softcore": null
        },
        {
          "id": 1396,
          "adult": false,
          "softcore": false
        },
        {
          "id": 1398,
          "adult": false,
          "softcore": false
        },
        {
          "id": 1408,
          "adult": false,
          "softcore": false
        },
        {
          "id": 1438,
          "adult": false,
          "softcore": false
        },
        {
          "id": 18096,
          "adult": false,
          "softcore": false
        },
        {
          "id": 27660,
          "adult": false,
          "softcore": false
        },
        {
          "id": 45790,
          "adult": false,
          "softcore": false
        },
        {
          "id": 46195,
          "adult": false,
          "softcore": false
        },
        {
          "id": 47665,
          "adult": false,
          "softcore": false
        },
        {
          "id": 60059,
          "adult": false,
          "softcore": false
        },
        {
          "id": 62560,
          "adult": false,
          "softcore": false
        },
        {
          "id": 89456,
          "adult": false,
          "softcore": false
        },
        {
          "id": 284445,
          "adult": false,
          "softcore": false
        },
        {
          "id": 220255,
          "adult": false,
          "softcore": false
        },
        {
          "id": 36581,
          "adult": false,
          "softcore": false
        },
        {
          "id": 217164,
          "adult": false,
          "softcore": false
        },
        {
          "id": 1667,
          "adult": false,
          "softcore": false
        },
        {
          "id": 21315,
          "adult": false,
          "softcore": false
        },
        {
          "id": 283935,
          "adult": false,
          "softcore": false
        },
        {
          "id": 249971,
          "adult": false,
          "softcore": false
        },
        {
          "id": 285788,
          "adult": false,
          "softcore": false
        },
        {
          "id": 97525,
          "adult": false,
          "softcore": false
        },
        {
          "id": 258901,
          "adult": false,
          "softcore": false
        },
        {
          "id": 294867,
          "adult": false,
          "softcore": false
        },
        {
          "id": 302658,
          "adult": false,
          "softcore": false
        },
        {
          "id": 306387,
          "adult": false,
          "softcore": false
        },
        {
          "id": 235493,
          "adult": false,
          "softcore": false
        },
        {
          "id": 306388,
          "adult": false,
          "softcore": false
        },
        {
          "id": 17037,
          "adult": false,
          "softcore": false
        },
        {
          "id": 305674,
          "adult": null,
          "softcore": null
        },
        {
          "id": 296851,
          "adult": false,
          "softcore": false
        },
        {
          "id": 46518,
          "adult": false,
          "softcore": false
        },
        {
          "id": 245292,
          "adult": false,
          "softcore": false
        },
        {
          "id": 278136,
          "adult": null,
          "softcore": null
        },
        {
          "id": 306210,
          "adult": false,
          "softcore": false
        },
        {
          "id": 223876,
          "adult": false,
          "softcore": false
        },
        {
          "id": 299224,
          "adult": false,
          "softcore": false
        },
        {
          "id": 306389,
          "adult": false,
          "softcore": false
        }
      ],
      "page": 1,
      "total_pages": 23,
      "total_results": 2236
    },
    "Headers": {
      "Content-Type": "application/json; charset=utf-8",
      "Transfer-Encoding": "chunked",
      "Connection": "keep-alive",
      "Server": "openresty",
      "X-Gateway-Cache-Status": "MISS",
      "Cache-Control": "public, max-age=8845",
      "x-memc": "HIT",
      "x-memc-key": "6bf58d1426f4ac915668f90b576e802290b59c97c558cf474fa259d7a75c7dd3",
      "x-az": "us-east-1b",
      "ETag": "W/\u00222046b05e227cdc4a00bac509a5730c62\u0022",
      "Vary": [
        "accept-encoding",
        "Origin"
      ],
      "X-Cache": "Hit from cloudfront",
      "X-Amz-Cf-Pop": "MUC50-P2",
      "Alt-Svc": "h3=\u0022:443\u0022"
    }
  }
}