{
  "Guid": "119c418f-c4a4-b447-8617-c6e77aa85087",
  "UpdatedAt": "2026-05-24T16:19:44.601413Z",
  "Title": "Proxy Mapping for GET /3/person/changes",
  "Description": "Proxy Mapping for GET /3/person/changes",
  "Priority": -2000000,
  "Request": {
    "Path": {
      "Matchers": [
        {
          "Name": "WildcardMatcher",
          "Pattern": "/3/person/changes",
          "IgnoreCase": false
        }
      ]
    },
    "Methods": [
      "GET"
    ],
    "HttpVersion": "1.1",
    "Headers": [
      {
        "Name": "Accept-Encoding",
        "Matchers": [
          {
            "Name": "WildcardMatcher",
            "Pattern": "gzip, deflate, br",
            "IgnoreCase": true
          }
        ],
        "IgnoreCase": true
      }
    ]
  },
  "Response": {
    "StatusCode": 200,
    "BodyAsJson": {
      "results": [
        {
          "id": 1395247,
          "adult": false,
          "softcore": false
        },
        {
          "id": 2013452,
          "adult": false,
          "softcore": false
        },
        {
          "id": 2042733,
          "adult": false,
          "softcore": false
        },
        {
          "id": 1723110,
          "adult": false,
          "softcore": false
        },
        {
          "id": 3043048,
          "adult": false,
          "softcore": false
        },
        {
          "id": 3292709,
          "adult": false,
          "softcore": false
        },
        {
          "id": 6233363,
          "adult": false,
          "softcore": false
        },
        {
          "id": 6233368,
          "adult": false,
          "softcore": false
        },
        {
          "id": 3998566,
          "adult": false,
          "softcore": false
        },
        {
          "id": 5719125,
          "adult": false,
          "softcore": false
        },
        {
          "id": 4557237,
          "adult": false,
          "softcore": false
        },
        {
          "id": 6233359,
          "adult": false,
          "softcore": false
        },
        {
          "id": 6233357,
          "adult": false,
          "softcore": false
        },
        {
          "id": 5216239,
          "adult": false,
          "softcore": false
        },
        {
          "id": 2000085,
          "adult": false,
          "softcore": false
        },
        {
          "id": 5217411,
          "adult": false,
          "softcore": false
        },
        {
          "id": 6233369,
          "adult": false,
          "softcore": false
        },
        {
          "id": 4576787,
          "adult": false,
          "softcore": false
        },
        {
          "id": 2027846,
          "adult": false,
          "softcore": false
        },
        {
          "id": 1083010,
          "adult": false,
          "softcore": false
        },
        {
          "id": 6233370,
          "adult": false,
          "softcore": false
        },
        {
          "id": 6233371,
          "adult": false,
          "softcore": false
        },
        {
          "id": 6224003,
          "adult": false,
          "softcore": false
        },
        {
          "id": 6233372,
          "adult": false,
          "softcore": false
        },
        {
          "id": 4472091,
          "adult": false,
          "softcore": false
        },
        {
          "id": 6233373,
          "adult": false,
          "softcore": false
        },
        {
          "id": 3971366,
          "adult": false,
          "softcore": false
        },
        {
          "id": 4661366,
          "adult": false,
          "softcore": false
        },
        {
          "id": 4661364,
          "adult": false,
          "softcore": false
        },
        {
          "id": 4661362,
          "adult": false,
          "softcore": false
        },
        {
          "id": 6233374,
          "adult": false,
          "softcore": false
        },
        {
          "id": 3396514,
          "adult": false,
          "softcore": false
        },
        {
          "id": 5206961,
          "adult": false,
          "softcore": false
        },
        {
          "id": 2461578,
          "adult": false,
          "softcore": false
        },
        {
          "id": 1169003,
          "adult": false,
          "softcore": false
        },
        {
          "id": 4919868,
          "adult": false,
          "softcore": false
        },
        {
          "id": 6233375,
          "adult": false,
          "softcore": false
        },
        {
          "id": 6233376,
          "adult": false,
          "softcore": false
        },
        {
          "id": 2341830,
          "adult": null,
          "softcore": null
        },
        {
          "id": 1703998,
          "adult": false,
          "softcore": false
        },
        {
          "id": 4661360,
          "adult": null,
          "softcore": null
        },
        {
          "id": 6233377,
          "adult": false,
          "softcore": false
        },
        {
          "id": 2266410,
          "adult": false,
          "softcore": false
        },
        {
          "id": 6233378,
          "adult": false,
          "softcore": false
        },
        {
          "id": 6233379,
          "adult": false,
          "softcore": false
        },
        {
          "id": 6233380,
          "adult": false,
          "softcore": false
        },
        {
          "id": 6233381,
          "adult": false,
          "softcore": false
        },
        {
          "id": 6233382,
          "adult": false,
          "softcore": false
        },
        {
          "id": 6233383,
          "adult": false,
          "softcore": false
        },
        {
          "id": 6233384,
          "adult": false,
          "softcore": false
        },
        {
          "id": 6233385,
          "adult": false,
          "softcore": false
        },
        {
          "id": 1023132,
          "adult": false,
          "softcore": false
        },
        {
          "id": 6233386,
          "adult": false,
          "softcore": false
        },
        {
          "id": 6233387,
          "adult": false,
          "softcore": false
        },
        {
          "id": 6233388,
          "adult": false,
          "softcore": false
        },
        {
          "id": 6205865,
          "adult": null,
          "softcore": null
        },
        {
          "id": 6233389,
          "adult": false,
          "softcore": false
        },
        {
          "id": 6233390,
          "adult": false,
          "softcore": false
        },
        {
          "id": 6233391,
          "adult": false,
          "softcore": false
        },
        {
          "id": 2056536,
          "adult": false,
          "softcore": false
        },
        {
          "id": 6233392,
          "adult": false,
          "softcore": false
        },
        {
          "id": 2303353,
          "adult": false,
          "softcore": false
        },
        {
          "id": 2260631,
          "adult": false,
          "softcore": false
        },
        {
          "id": 6233393,
          "adult": false,
          "softcore": false
        },
        {
          "id": 2309958,
          "adult": false,
          "softcore": false
        },
        {
          "id": 6233394,
          "adult": false,
          "softcore": false
        },
        {
          "id": 6233395,
          "adult": false,
          "softcore": false
        },
        {
          "id": 6233396,
          "adult": false,
          "softcore": false
        },
        {
          "id": 6233397,
          "adult": false,
          "softcore": false
        },
        {
          "id": 6233398,
          "adult": false,
          "softcore": false
        },
        {
          "id": 6233399,
          "adult": false,
          "softcore": false
        },
        {
          "id": 6233400,
          "adult": false,
          "softcore": false
        },
        {
          "id": 6233401,
          "adult": false,
          "softcore": false
        },
        {
          "id": 6233402,
          "adult": false,
          "softcore": false
        },
        {
          "id": 6233403,
          "adult": false,
          "softcore": false
        },
        {
          "id": 6233404,
          "adult": false,
          "softcore": false
        },
        {
          "id": 6233405,
          "adult": false,
          "softcore": false
        },
        {
          "id": 6233406,
          "adult": false,
          "softcore": false
        },
        {
          "id": 6233407,
          "adult": false,
          "softcore": false
        },
        {
          "id": 6233408,
          "adult": false,
          "softcore": false
        },
        {
          "id": 6233409,
          "adult": false,
          "softcore": false
        },
        {
          "id": 6233410,
          "adult": false,
          "softcore": false
        },
        {
          "id": 6233411,
          "adult": false,
          "softcore": false
        },
        {
          "id": 6233412,
          "adult": false,
          "softcore": false
        },
        {
          "id": 6233413,
          "adult": false,
          "softcore": false
        },
        {
          "id": 6233414,
          "adult": false,
          "softcore": false
        },
        {
          "id": 6233415,
          "adult": false,
          "softcore": false
        },
        {
          "id": 3164334,
          "adult": false,
          "softcore": false
        },
        {
          "id": 6233416,
          "adult": false,
          "softcore": false
        },
        {
          "id": 6233417,
          "adult": false,
          "softcore": false
        },
        {
          "id": 6233418,
          "adult": false,
          "softcore": false
        },
        {
          "id": 6233419,
          "adult": false,
          "softcore": false
        },
        {
          "id": 3820360,
          "adult": false,
          "softcore": false
        },
        {
          "id": 6233420,
          "adult": false,
          "softcore": false
        },
        {
          "id": 4193879,
          "adult": false,
          "softcore": false
        },
        {
          "id": 6233421,
          "adult": false,
          "softcore": false
        },
        {
          "id": 6233422,
          "adult": false,
          "softcore": false
        },
        {
          "id": 6233423,
          "adult": false,
          "softcore": false
        },
        {
          "id": 3602909,
          "adult": false,
          "softcore": false
        },
        {
          "id": 3792211,
          "adult": false,
          "softcore": false
        }
      ],
      "page": 1,
      "total_pages": 56,
      "total_results": 5558
    },
    "Headers": {
      "Content-Type": "application/json; charset=utf-8",
      "Transfer-Encoding": "chunked",
      "Connection": "keep-alive",
      "Server": "openresty",
      "X-Gateway-Cache-Status": "MISS",
      "x-memc": "HIT",
      "x-memc-key": "5ae9eca557db2db1ea554a0cdca16846a2fae83252d2220473eac202fb95677f",
      "x-az": "us-east-1b",
      "Cache-Control": "public, max-age=500",
      "ETag": "W/\u0022841975acb49884076a2ff0fce1eb026f\u0022",
      "Vary": [
        "Accept-Encoding",
        "Origin"
      ],
      "X-Cache": "Hit from cloudfront",
      "X-Amz-Cf-Pop": "MUC50-P2",
      "Alt-Svc": "h3=\u0022:443\u0022"
    }
  }
}